[
  { "id": 1, "name": "First assignment", "isFinished": true },
  { "id": 2, "name": "Second assignment", "isFinished": true },
  { "id": 3, "name": "Third assignment", "isFinished": false },
  { "id": 4, "name": "Fourth assignment", "isFinished": false }
]
